-------------------------------------------------------------------------------
Test set: fr.uvsq21921208.Compte.Utilities.CompteTest
-------------------------------------------------------------------------------
Tests run: 6, Failures: 0, Errors: 0, Skipped: 0, Time elapsed: 0.132 sec
